…
<!-- end list -->

``` r
skm %>% 
  as_tibble() %>% 
  filter(stat == "missing") %>% 
  arrange(desc(value))
```

    ## # A tibble: 43 x 6
    ##    variable                       type      stat    level value formatted
    ##    <chr>                          <chr>     <chr>   <chr> <dbl> <chr>    
    ##  1 migration_code-change_in_msa   character missing .all  99696 99696    
    ##  2 migration_code-change_in_reg   character missing .all  99696 99696    
    ##  3 migration_code-move_within_reg character missing .all  99696 99696    
    ##  4 migration_prev_res_in_sunbelt  character missing .all  99696 99696    
    ##  5 country_of_birth_father        character missing .all   6713 6713     
    ##  6 country_of_birth_mother        character missing .all   6119 6119     
    ##  7 country_of_birth_self          character missing .all   3393 3393     
    ##  8 state_of_previous_residence    character missing .all    708 708      
    ##  9 age                            numeric   missing .all      0 0        
    ## 10 class_of_worker                character missing .all      0 0        
    ## # … with 33 more rows
…
